[
  {
    "name": "january",
    "link": "https://open.spotify.com/playlist/6rMQuIDDw8hzZeOHzTFQ5l?si=3f0bb396e76b41eb"
  },
  {
    "name": "february",
    "link": "https://open.spotify.com/playlist/5hn3HTI4qRtV37PvsxRxok?si=7449a4dd649a43d4"
  },
  {
    "name": "march",
    "link": "https://open.spotify.com/playlist/1LJ39S9rL5QoADuiNZPAGp?si=6573f55bfdb9486f"
  },
  {
    "name": "april",
    "link": "https://open.spotify.com/playlist/5mSXCGzekCldBPDZiVRQZY?si=e23ae79bf9824e8d"
  },
  {
    "name": "may",
    "link": "https://open.spotify.com/playlist/5ngN44WEdyXubi2Lc0olFK?si=103e22a3253b4c44"
  }
]
