[
  {
    "socialMedia": "facebook",
    "link": "https://www.facebook.com/torvadim/"
  },
  {
    "socialMedia": "twitter",
    "link": "https://twitter.com/torvadi"
  },
  {
    "socialMedia": "instagram",
    "link": "https://www.instagram.com/torvadi/"
  }
]
